// Jest Snapshot v1, https://goo.gl/fbAQLP

exports[`should display an error when the dashboard contents could not be loaded 1`] = `
<DashboardPage
  match={
    Object {
      "url": "https://arbitrary_url",
    }
  }
>
  <div
    className="callout alert"
  >
    There was a problem loading your dashboard.
  </div>
</DashboardPage>
`;

exports[`should display the dashboard contents when they have been loaded 1`] = `
<DashboardPage
  match={
    Object {
      "url": "https://arbitrary_url",
    }
  }
>
  <div>
    <section
      className="hero is-medium is-dark is-bold"
    >
      <div
        className="hero-body"
      >
        <div
          className="container"
        >
          <PageMetadata
            description="Manage your journals and articles"
            title="Dashboard"
            url="https://arbitrary_url"
          >
            <HelmetWrapper
              defer={true}
              encodeSpecialCharacters={true}
            >
              <SideEffect(NullComponent)
                defer={true}
                encodeSpecialCharacters={true}
                meta={
                  Array [
                    Object {
                      "content": "https://arbitrary_url",
                      "name": "og:url",
                    },
                    Object {
                      "content": "Dashboard | Flockademic (beta)",
                      "name": "og:title",
                    },
                    Object {
                      "content": "Dashboard | Flockademic (beta)",
                      "name": "twitter:title",
                    },
                    Object {
                      "content": "Manage your journals and articles",
                      "name": "description",
                    },
                    Object {
                      "content": "Manage your journals and articles",
                      "name": "og:description",
                    },
                    Object {
                      "content": "Manage your journals and articles",
                      "name": "twitter:description",
                    },
                    Object {
                      "content": "website",
                      "name": "og:type",
                    },
                    Object {
                      "content": "summary",
                      "name": "twitter:card",
                    },
                    Object {
                      "content": "@Flockademic",
                      "name": "twitter:site",
                    },
                  ]
                }
                title="Dashboard | Flockademic (beta)"
                titleAttributes={Object {}}
              >
                <NullComponent
                  defer={true}
                  encodeSpecialCharacters={true}
                  meta={
                    Array [
                      Object {
                        "content": "https://arbitrary_url",
                        "name": "og:url",
                      },
                      Object {
                        "content": "Dashboard | Flockademic (beta)",
                        "name": "og:title",
                      },
                      Object {
                        "content": "Dashboard | Flockademic (beta)",
                        "name": "twitter:title",
                      },
                      Object {
                        "content": "Manage your journals and articles",
                        "name": "description",
                      },
                      Object {
                        "content": "Manage your journals and articles",
                        "name": "og:description",
                      },
                      Object {
                        "content": "Manage your journals and articles",
                        "name": "twitter:description",
                      },
                      Object {
                        "content": "website",
                        "name": "og:type",
                      },
                      Object {
                        "content": "summary",
                        "name": "twitter:card",
                      },
                      Object {
                        "content": "@Flockademic",
                        "name": "twitter:site",
                      },
                    ]
                  }
                  title="Dashboard | Flockademic (beta)"
                  titleAttributes={Object {}}
                />
              </SideEffect(NullComponent)>
            </HelmetWrapper>
          </PageMetadata>
          <h1
            className="title"
          >
            Dashboard
          </h1>
        </div>
      </div>
    </section>
    <section
      className="section"
      data-test-id="article-list"
    >
      <div
        className="container"
      >
        <div
          className="columns"
        >
          <div
            className="column is-half-widescreen"
          >
            <h2
              className="title is-size-4"
            >
              Your articles
            </h2>
            <Component
              articles={
                Array [
                  Object {
                    "identifier": "first",
                    "name": "One article",
                  },
                  Object {
                    "identifier": "second",
                    "name": "Another article",
                  },
                ]
              }
            >
              <article
                className="media"
                itemScope={true}
                itemType="https://schema.org/ScholarlyArticle"
                key="article_first_undefined"
              >
                <div
                  className="media-content"
                >
                  <h3
                    className="is-size-6"
                    itemProp="name"
                  >
                    <Link
                      itemProp="url"
                      replace={false}
                      title="Access the full article for free"
                      to="/article/first"
                    >
                      <a
                        itemProp="url"
                        onClick={[Function]}
                        title="Access the full article for free"
                      >
                        One article
                      </a>
                    </Link>
                  </h3>
                  <p
                    itemProp="description"
                  />
                </div>
              </article>
              <article
                className="media"
                itemScope={true}
                itemType="https://schema.org/ScholarlyArticle"
                key="article_second_undefined"
              >
                <div
                  className="media-content"
                >
                  <h3
                    className="is-size-6"
                    itemProp="name"
                  >
                    <Link
                      itemProp="url"
                      replace={false}
                      title="Access the full article for free"
                      to="/article/second"
                    >
                      <a
                        itemProp="url"
                        onClick={[Function]}
                        title="Access the full article for free"
                      >
                        Another article
                      </a>
                    </Link>
                  </h3>
                  <p
                    itemProp="description"
                  />
                </div>
              </article>
            </Component>
          </div>
        </div>
      </div>
    </section>
    <section
      className="section"
      data-test-id="journal-list"
    >
      <div
        className="container"
      >
        <div
          className="columns"
        >
          <div
            className="column is-half-widescreen"
          >
            <h2
              className="title is-size-4"
            >
              Preprint journals you manage
            </h2>
            <Component
              periodicals={
                Array [
                  Object {
                    "identifier": "first",
                    "name": "One periodical",
                  },
                  Object {
                    "identifier": "second",
                    "name": "Another periodical",
                  },
                ]
              }
            >
              <ul>
                <li
                  className="media"
                  itemScope={true}
                  itemType="https://schema.org/Periodical"
                  key="first"
                >
                  <div
                    className="media-content"
                  >
                    <div
                      className="content"
                    >
                      <p>
                        <Link
                          itemProp="url"
                          replace={false}
                          to="/journal/first"
                        >
                          <a
                            itemProp="url"
                            onClick={[Function]}
                          >
                            <strong>
                              One periodical
                            </strong>
                          </a>
                        </Link>
                      </p>
                    </div>
                  </div>
                </li>
                <li
                  className="media"
                  itemScope={true}
                  itemType="https://schema.org/Periodical"
                  key="second"
                >
                  <div
                    className="media-content"
                  >
                    <div
                      className="content"
                    >
                      <p>
                        <Link
                          itemProp="url"
                          replace={false}
                          to="/journal/second"
                        >
                          <a
                            itemProp="url"
                            onClick={[Function]}
                          >
                            <strong>
                              Another periodical
                            </strong>
                          </a>
                        </Link>
                      </p>
                    </div>
                  </div>
                </li>
              </ul>
            </Component>
          </div>
        </div>
      </div>
    </section>
  </div>
</DashboardPage>
`;
